%YAML 1.1
%TAG !u! tag:unity3d.com,2011:
--- !u!1045 &1
EditorBuildSettings:
  m_ObjectHideFlags: 0
  serializedVersion: 2
  m_Scenes:
  - enabled: 1
    path: Assets/Scenes/photon.unity
    guid: 39eae3ac9241e3245a04c1722715fa01
  - enabled: 1
    path: Assets/Scenes/PMC.unity
    guid: d1c3109bdb54ad54c8a2b2838528e640
  - enabled: 1
    path: Assets/API-Example/desktop-screenshare-sample/WebScreenShareScene.unity
    guid: 46764890e023f4bef80ff1279a94451d
  - enabled: 0
    path: Assets/API-Example/SpatialAudioForClientManager/SpatialAudioScene.unity
    guid: 9b5f437855cd6ee468f48354227c74a7
  m_configObjects: {}
