%YAML 1.1
%TAG !u! tag:unity3d.com,2011:
--- !u!78 &1
TagManager:
  serializedVersion: 2
  tags:
  - screen
  - lobby
  - cafe
  - waiting
  - meeting
  - spawn
  - MultiChanel
  - BoardLogic
  - Bullet
  - Marker
  - BoardLogic1
  - BoardLogic2
  - Board
  - Marker1
  - Marker2
  - StickyNote
  - MarkerForNote
  - StickyNote1
  - StickyNote2
  - MarkerForNote1
  - MarkerForNote2
  layers:
  - Default
  - TransparentFX
  - Ignore Raycast
  - 
  - Water
  - UI
  - BoardCamIgnore
  - 
  - 
  - 
  - 
  - 
  - 
  - 
  - 
  - 
  - 
  - 
  - 
  - 
  - 
  - 
  - 
  - 
  - 
  - 
  - 
  - 
  - 
  - 
  - 
  - 
  m_SortingLayers:
  - name: Default
    uniqueID: 0
    locked: 0
